…
```r
average_births_per_day[order(average_births_per_day$average_births), ]
```

```
## # A tibble: 31 × 2
##    date_of_month average_births
##            <int>          <dbl>
##  1            25         10959.
##  2            24         11073.
##  3            31         11075.
##  4            13         11111.
##  5            26         11118.
##  6             1         11131.
##  7             4         11138.
##  8            23         11242.
##  9             2         11280.
## 10            27         11308.
## # ℹ 21 more rows
```
